shopping_history
offers_history
benefit_transactions
identities
device_raw_data_690000000_700000000
receipts_320000000_330000000
shopping_history_items_201910
shopping_history_items_201911
shopping_history_items_201912
